.
├── LICENSE
├── README.md
├── SECURITY.md
├── SECURITY.rst
├── b2sum
│   └── b2sum-linux-x86_64
├── b3sum
│   └── b3sum-linux-x86_64
├── check_results
├── chksum
│   └── chksum-cli-linux-x86_64
├── content_long_list.txt
├── content_summary.txt
├── dataset
│   └── placeholder.txt
├── dep
│   └── placeholder.txt
├── documentation
│   ├── robots.txt
│   └── scorecard
│       └── scorecard.md
├── example
│   └── placeholder.txt
├── humans.txt
├── k12sum
│   └── k12sum-linux-x86_64
├── pyproject.toml
├── repo_check_results
│   ├── bomber.html
│   ├── bomber.json
│   ├── osv_repo.json
│   └── osv_sbom.json
├── res
│   └── placeholder.txt
├── robots.txt
├── rshash
│   └── rshash-linux-x86_64
├── sbom.json
├── security.txt
├── sha1sum
│   └── sha1sum-linux-x86_64
├── sha3sum
│   └── sha3sum-linux-x86_64
├── src
│   └── placeholder.txt
├── structure.txt
├── test
│   └── placeholder.txt
├── tools
│   └── placeholder.txt
└── xxhash
    ├── hash_file-linux-x86_64
    └── hash_string-linux-x86_64

19 directories, 34 files
